<?xml version="1.0" encoding="UTF-8" standalone="no"?>
<!-- Created with Inkscape (http://www.inkscape.org/) -->

<svg
   width="12.959mm"
   height="2.882mm"
   viewBox="0 0 12.959 2.882"
   version="1.1"
   id="svg7530"
   inkscape:version="1.2.1 (9c6d41e410, 2022-07-14)"
   sodipodi:docname="dominic.svg"
   xmlns:inkscape="http://www.inkscape.org/namespaces/inkscape"
   xmlns:sodipodi="http://sodipodi.sourceforge.net/DTD/sodipodi-0.dtd"
   xmlns="http://www.w3.org/2000/svg"
   xmlns:svg="http://www.w3.org/2000/svg">
  <sodipodi:namedview
     id="namedview7532"
     pagecolor="#505050"
     bordercolor="#eeeeee"
     borderopacity="1"
     inkscape:showpageshadow="0"
     inkscape:pageopacity="0"
     inkscape:pagecheckerboard="0"
     inkscape:deskcolor="#505050"
     inkscape:document-units="mm"
     showgrid="false"
     inkscape:zoom="5.9651515"
     inkscape:cx="38.138176"
     inkscape:cy="52.639065"
     inkscape:window-width="2560"
     inkscape:window-height="1017"
     inkscape:window-x="2552"
     inkscape:window-y="-8"
     inkscape:window-maximized="1"
     inkscape:current-layer="layer1" />
  <defs
     id="defs7527" />
  <g
     inkscape:label="Layer 1"
     inkscape:groupmode="layer"
     id="layer1"
     transform="translate(-34.932323,-57.457992)">
    <g
       aria-label="Dominic"
       id="text8628"
       style="font-size:3.175px;font-family:'Eras Bold ITC';-inkscape-font-specification:'Eras Bold ITC';stroke-width:0.264583">
      <path
         d="m 34.932323,59.612904 q 0.03411,-0.353467 0.04651,-0.565857 0.0186,-0.31626 0.03721,-0.818555 0.01395,-0.384473 0.01395,-0.550354 v -0.181384 q 0.181384,0.0047 0.313159,0.0047 0.127124,0 0.333313,-0.0062 0.206189,-0.0078 0.387574,-0.0078 0.207739,0 0.364318,0.02481 0.15658,0.0248 0.291455,0.102319 0.136426,0.07751 0.227894,0.203088 0.09147,0.125574 0.139526,0.294556 0.04806,0.167432 0.04806,0.345715 0,0.175183 -0.03721,0.337964 -0.03721,0.161231 -0.10387,0.291455 -0.06666,0.130225 -0.156579,0.224793 -0.08837,0.09302 -0.203089,0.15968 -0.08527,0.04961 -0.172082,0.07752 -0.08682,0.0279 -0.237195,0.04496 -0.167432,0.0186 -0.379822,0.0186 l -0.626318,-0.0047 q -0.08837,0 -0.286804,0.0047 z m 0.669726,-0.466639 q 0.08527,0.0078 0.178284,0.0078 0.15813,0 0.282153,-0.02791 0.124024,-0.02791 0.217041,-0.119373 0.09457,-0.09147 0.139527,-0.234094 0.04496,-0.144177 0.04496,-0.294556 0,-0.184485 -0.06666,-0.310058 -0.06666,-0.127124 -0.178284,-0.176734 -0.110071,-0.04961 -0.300757,-0.04961 -0.111621,0 -0.26355,0.0093 z"
         id="path9422" />
      <path
         d="m 38.288707,57.989747 q 0.192236,0 0.36897,0.05891 0.178283,0.05891 0.300756,0.170532 0.122474,0.110071 0.179834,0.258899 0.05891,0.147278 0.05891,0.31781 0,0.165882 -0.05271,0.31626 -0.05116,0.148828 -0.175184,0.280603 -0.124023,0.130225 -0.316259,0.195337 -0.190686,0.06511 -0.404627,0.06511 -0.196887,0 -0.378271,-0.05736 -0.181385,-0.05736 -0.303858,-0.167431 -0.120923,-0.110071 -0.182934,-0.26355 -0.06046,-0.153479 -0.06046,-0.322461 0,-0.168982 0.05891,-0.322461 0.06046,-0.153479 0.189136,-0.275952 0.130225,-0.122473 0.320911,-0.187586 0.190686,-0.06666 0.396875,-0.06666 z m -0.01085,0.455786 q -0.09922,0 -0.176734,0.05116 -0.07751,0.05116 -0.117822,0.150378 -0.03876,0.09767 -0.03876,0.213941 0,0.170532 0.08527,0.261999 0.08527,0.08992 0.21394,0.08992 0.09767,0 0.175183,-0.05116 0.07751,-0.05271 0.116272,-0.153479 0.04031,-0.102319 0.04031,-0.218591 0,-0.09612 -0.03101,-0.173633 -0.03101,-0.07751 -0.102319,-0.124023 -0.06976,-0.04651 -0.164331,-0.04651 z"
         id="path9424" />
      <path
         d="m 39.431273,59.612904 0.04341,-0.747242 0.0248,-0.58446 0.0031,-0.251148 q 0.170532,0.0031 0.300757,0.0031 0.147278,0 0.286804,-0.0031 l -0.01085,0.206189 q 0.04806,-0.06201 0.08062,-0.09457 0.03411,-0.03411 0.08217,-0.06356 0.04806,-0.03101 0.09922,-0.04806 0.05116,-0.0186 0.114721,-0.02945 0.06356,-0.01085 0.133325,-0.01085 0.07906,0 0.145728,0.01395 0.06666,0.0124 0.114722,0.03256 0.04806,0.02015 0.08371,0.04651 0.03566,0.02636 0.06201,0.06046 0.02791,0.03256 0.06356,0.09612 0.06821,-0.09922 0.144177,-0.150378 0.07596,-0.05116 0.172083,-0.07441 0.09767,-0.02481 0.199988,-0.02481 0.134875,0 0.254248,0.03876 0.119372,0.03876 0.195337,0.134876 0.07751,0.09457 0.07751,0.246496 0,0.07131 -0.01085,0.215491 -0.0093,0.144177 -0.0279,0.496094 -0.01705,0.350366 -0.0186,0.491443 -0.142627,-0.0031 -0.275953,-0.0031 -0.16278,0 -0.341064,0.0031 0.0155,-0.196888 0.03101,-0.492994 0.01705,-0.297656 0.01705,-0.412377 0,-0.09922 -0.02325,-0.147278 -0.02325,-0.04961 -0.06046,-0.06666 -0.03566,-0.0186 -0.07906,-0.0186 -0.04651,0 -0.08062,0.01705 -0.03721,0.0186 -0.06511,0.05736 -0.03721,0.05116 -0.06046,0.128674 -0.0186,0.06046 -0.02945,0.184485 -0.01085,0.127124 -0.01705,0.334863 l -0.0124,0.415479 q -0.165881,-0.0031 -0.299206,-0.0031 -0.136426,0 -0.320911,0.0031 0.01395,-0.137976 0.03256,-0.463538 0.0186,-0.325562 0.0186,-0.435632 0,-0.09302 -0.0186,-0.139527 -0.0186,-0.04651 -0.05271,-0.07441 -0.03256,-0.0279 -0.08837,-0.0279 -0.06046,0 -0.105419,0.03566 -0.04496,0.03566 -0.07751,0.102319 -0.03101,0.06666 -0.04496,0.184485 -0.0124,0.116272 -0.02325,0.356567 -0.01085,0.240296 -0.01395,0.461988 -0.187585,-0.0031 -0.303857,-0.0031 -0.128674,0 -0.31936,0.0031 z"
         id="path9426" />
      <path
         d="m 42.474498,57.833167 q 0.0093,-0.184485 0.0093,-0.291455 0,-0.03101 -0.0016,-0.08372 0.187586,0.0031 0.31471,0.0031 0.175183,0 0.306958,-0.0031 -0.0047,0.04806 -0.0062,0.08062 l -0.0093,0.192236 q -0.0031,0.04341 -0.0031,0.102319 -0.153479,-0.0031 -0.294555,-0.0031 -0.145728,0 -0.31626,0.0031 z m -0.09767,1.779737 q 0.0217,-0.189136 0.03256,-0.311609 0.01085,-0.122473 0.02015,-0.313159 0.01085,-0.190686 0.0186,-0.42168 0.0078,-0.230994 0.0124,-0.536402 0.201538,0.0031 0.322461,0.0031 0.110071,0 0.31626,-0.0031 -0.02636,0.293006 -0.03876,0.514698 -0.01085,0.221692 -0.01395,0.469739 -0.0062,0.440283 -0.0062,0.598413 -0.184485,-0.0031 -0.31781,-0.0031 -0.131775,0 -0.345716,0.0031 z"
         id="path9428" />
      <path
         d="m 43.361265,59.612904 q 0.04496,-0.351917 0.06821,-0.776697 0.0248,-0.426331 0.02945,-0.806153 0.186036,0.0031 0.320911,0.0031 0.15658,0 0.300757,-0.0031 l -0.0155,0.21084 q 0.05116,-0.05736 0.08837,-0.08992 0.03721,-0.03411 0.09147,-0.06511 0.05581,-0.03256 0.117822,-0.05271 0.06201,-0.02015 0.134876,-0.03101 0.07441,-0.0124 0.155029,-0.0124 0.111621,0 0.217041,0.02481 0.10697,0.02325 0.178284,0.06821 0.07131,0.04341 0.119372,0.110071 0.04806,0.06511 0.06356,0.141077 0.0155,0.07596 0.0155,0.15658 0,0.05891 -0.0124,0.254248 l -0.02636,0.561206 q -0.0078,0.165881 -0.0078,0.306958 -0.156579,-0.0031 -0.293005,-0.0031 -0.184485,0 -0.336414,0.0031 0.01395,-0.141077 0.02946,-0.41858 0.0155,-0.279052 0.0155,-0.392224 0,-0.175183 -0.06821,-0.243396 -0.06666,-0.06976 -0.168982,-0.06976 -0.08992,0 -0.170532,0.05891 -0.07906,0.05891 -0.122473,0.172083 -0.04341,0.111621 -0.06201,0.36897 -0.01705,0.257348 -0.02325,0.523999 -0.15503,-0.0031 -0.302307,-0.0031 -0.15503,0 -0.336414,0.0031 z"
         id="path9430" />
      <path
         d="m 45.623142,57.833167 q 0.0093,-0.184485 0.0093,-0.291455 0,-0.03101 -0.0016,-0.08372 0.187585,0.0031 0.314709,0.0031 0.175183,0 0.306958,-0.0031 -0.0047,0.04806 -0.0062,0.08062 l -0.0093,0.192236 q -0.0031,0.04341 -0.0031,0.102319 -0.153479,-0.0031 -0.294556,-0.0031 -0.145728,0 -0.31626,0.0031 z m -0.09767,1.779737 q 0.0217,-0.189136 0.03256,-0.311609 0.01085,-0.122473 0.02015,-0.313159 0.01085,-0.190686 0.0186,-0.42168 0.0078,-0.230994 0.0124,-0.536402 0.201538,0.0031 0.322461,0.0031 0.11007,0 0.316259,-0.0031 -0.02635,0.293006 -0.03876,0.514698 -0.01085,0.221692 -0.01395,0.469739 -0.0062,0.440283 -0.0062,0.598413 -0.184485,-0.0031 -0.31781,-0.0031 -0.131775,0 -0.345715,0.0031 z"
         id="path9432" />
      <path
         d="m 47.846263,59.11836 q -0.0078,0.06201 -0.03721,0.227893 l -0.04031,0.248047 q -0.243396,0.05891 -0.47594,0.05891 -0.168982,0 -0.296106,-0.03411 -0.150378,-0.04031 -0.269751,-0.142627 -0.122473,-0.10542 -0.178283,-0.249597 -0.06666,-0.168982 -0.06666,-0.378272 0,-0.192236 0.06511,-0.37052 0.06511,-0.178284 0.192237,-0.293005 0.127124,-0.116272 0.282153,-0.15503 0.155029,-0.04031 0.342615,-0.04031 0.110071,0 0.221692,0.0124 0.111621,0.01085 0.275952,0.04961 l 0.0031,0.03566 q 0.0047,0.05581 0.0062,0.114722 0.0031,0.05736 0.01085,0.182935 l 0.0093,0.137976 q -0.221691,-0.07752 -0.392224,-0.07752 -0.122473,0 -0.21549,0.04806 -0.09147,0.04651 -0.136426,0.136426 -0.04341,0.08837 -0.04341,0.206189 0,0.119372 0.03876,0.199988 0.04031,0.08062 0.127124,0.120922 0.08682,0.04031 0.190686,0.04031 0.05271,0 0.124023,-0.01085 0.07286,-0.01085 0.125574,-0.02325 0.05426,-0.01395 0.136426,-0.04496 z"
         id="path9434" />
    </g>
  </g>
</svg>
